﻿"ID de resposta","Enviada o","Última páxina","Idioma inicial","Semente","Comezada o","Última acción o","Acabas de chegar á universidade?","En que rama do coñecemento estás estudando?","Coñeces o concepto de software libre e as súas implicacións?","O software libre é gratuito?","Se teño Windows ou MacOS no meu ordenador, podo instalar aplicacións con licenza libre?","Unha licenza libre permite facer copias, pero podo vendelas?","Para facer os teus traballos, que paquete ofimático soes empregar?","Cal é o teu navegador web favorito?","Cales das seguintes aplicacións libres coñeces e/ou usas? [LibreOffice/OpenOffice]","Cales das seguintes aplicacións libres coñeces e/ou usas? [Mozilla Firefox]","Cales das seguintes aplicacións libres coñeces e/ou usas? [DuckDuckGo]","Cales das seguintes aplicacións libres coñeces e/ou usas? [VLC Media Player]","Cales das seguintes aplicacións libres coñeces e/ou usas? [Jitsi Meet]","Cales das seguintes aplicacións libres coñeces e/ou usas? [Gimp]","Cales das seguintes aplicacións libres coñeces e/ou usas? [Inkscape]","Cales das seguintes aplicacións libres coñeces e/ou usas? [Audacity]","Cales das seguintes aplicacións libres coñeces e/ou usas? [OBS Studio]","Cales das seguintes aplicacións libres coñeces e/ou usas? [F-Droid]","Indica a continuación outras aplicacións libres que coñezas e uses...","E por último, queres deixarnos algún comentario?"
"6","2023-09-20 23:22:17","3","gl","815234980","2023-09-20 23:21:42","2023-09-20 23:22:17","AO02","AO03","AO02","AO02","AO02","AO02","AO02","AO03","AO04","AO01","AO01","AO04","AO04","AO01","AO04","AO04","AO04","AO03","",""
"7","2023-09-20 23:24:21","3","gl","1200072841","2023-09-20 23:23:56","2023-09-20 23:24:21","AO02","AO03","AO02","AO02","AO02","AO01","AO02","AO03","AO04","AO04","AO04","AO04","AO04","AO04","AO04","AO04","AO04","AO04","",""
"8","2023-09-20 23:26:05","3","gl","1757950532","2023-09-20 23:25:39","2023-09-20 23:26:05","AO02","AO02","AO02","AO02","AO02","AO02","AO02","AO03","AO04","AO04","AO01","AO04","AO04","AO04","AO04","AO04","AO04","AO04","",""
"12","2023-09-21 17:25:14","3","gl","1547640920","2023-09-21 17:22:50","2023-09-21 17:25:14","AO02","AO05","AO01","AO02","AO02","AO02","AO03","AO03","AO01","AO01","AO04","AO01","AO03","AO04","AO04","AO01","AO01","AO04","",""
"13","2023-09-21 17:29:24","3","gl","700358837","2023-09-21 17:22:56","2023-09-21 17:29:24","AO02","AO05","AO01","AO02","AO02","AO02","AO01","AO02","AO01","AO01","AO03","AO01","AO03","AO01","AO03","AO01","AO01","AO03","Kdenlive, terminator, ROS, Gazebo, OpenCV...",""
"14","2023-09-21 17:28:09","3","gl","290208339","2023-09-21 17:23:09","2023-09-21 17:28:09","AO01","AO05","AO01","AO02","AO02","AO02","AO01","AO01","AO01","AO01","AO04","AO01","AO03","AO04","AO01","AO04","AO03","AO03","google drive, moodle, Ubuntu","Buena presentación, muy informativa"
"15","2023-09-21 17:26:33","3","gl","1937879410","2023-09-21 17:23:17","2023-09-21 17:26:33","AO01","AO05","AO02","AO02","AO02","AO01","AO01","AO02","AO01","AO04","AO03","AO01","AO03","AO01","AO03","AO01","AO03","AO03","Discord",""
"16","2023-09-21 17:26:06","3","gl","1526451566","2023-09-21 17:23:22","2023-09-21 17:26:06","AO01","AO05","AO01","AO02","AO02","AO02","AO01","AO02","AO04","AO04","AO04","AO04","AO03","AO03","AO04","AO04","AO04","AO03","",""
"17","2023-09-21 17:26:17","3","gl","1973966541","2023-09-21 17:23:23","2023-09-21 17:26:17","AO01","AO05","AO03","AO02","AO03","AO01","AO01","AO02","AO01","AO01","AO03","AO01","AO03","AO01","AO03","AO04","AO01","AO03","",""
"18","2023-09-21 17:26:28","3","gl","1612343621","2023-09-21 17:23:29","2023-09-21 17:26:28","AO01","AO05","AO02","AO02","AO03","AO01","AO02","AO02","AO01","AO01","AO03","AO01","AO03","AO03","AO04","AO03","AO04","AO03","FreeCAD","Gracias por el servicio."
"19","2023-09-21 17:28:23","3","gl","675518451","2023-09-21 17:23:30","2023-09-21 17:28:23","AO01","AO05","AO01","AO02","AO03","AO02","AO02","AO05","AO01","AO04","AO03","AO03","AO03","AO01","AO01","AO03","AO01","AO03","",""
"20","2023-09-21 17:26:59","3","gl","727800216","2023-09-21 17:23:32","2023-09-21 17:26:59","AO01","AO05","AO01","AO02","AO02","AO01","AO02","AO02","AO01","AO01","AO04","AO03","AO03","AO04","AO03","AO03","AO04","AO03","",""
"21","2023-09-21 17:30:15","3","gl","961936729","2023-09-21 17:23:38","2023-09-21 17:30:15","AO01","AO05","AO02","AO02","AO02","AO03","AO03","AO05","AO01","AO01","AO04","AO01","AO01","AO01","AO03","AO01","AO01","AO03","",""
"22","2023-09-21 17:29:11","3","gl","1364135104","2023-09-21 17:24:01","2023-09-21 17:29:11","AO01","AO05","AO02","AO02","AO01","AO01","AO01","AO02","AO01","AO01","AO04","AO01","AO03","AO03","AO03","AO03","AO03","AO03","No conozco otras aplicaciones.","Muy buena iniciativa para seguir aprendiendo aplicaciones que te pueden servir para tu entorno profesional. Muchas gracias."
"23","2023-09-21 17:27:00","3","gl","1832431414","2023-09-21 17:24:04","2023-09-21 17:27:00","AO01","AO05","AO02","AO02","AO02","AO02","AO02","AO05","AO01","AO01","AO04","AO01","AO03","AO04","AO03","AO01","AO01","AO03","Blender, VSCode, Unity, Unreal Engine...",""
"24","2023-09-21 17:27:24","3","gl","593354962","2023-09-21 17:24:06","2023-09-21 17:27:24","AO01","AO05","AO02","AO02","AO03","AO01","AO02","AO05","AO01","AO01","AO04","AO03","AO03","AO03","AO03","AO03","AO03","AO03","",""
"25","2023-09-21 17:27:47","3","gl","75282257","2023-09-21 17:24:11","2023-09-21 17:27:47","AO01","AO05","AO02","AO02","AO02","AO01","AO02","AO03","AO01","AO01","AO03","AO04","AO03","AO01","AO03","AO01","AO04","AO03","Pseint",""
"26","2023-09-21 17:28:17","3","gl","641398665","2023-09-21 17:24:34","2023-09-21 17:28:17","AO01","AO05","AO02","AO02","AO02","AO01","AO03","AO02","AO01","AO01","AO04","AO03","AO03","AO01","AO01","AO03","AO04","AO03","",""
"27","2023-09-21 17:27:26","3","gl","1678786782","2023-09-21 17:24:41","2023-09-21 17:27:26","AO01","AO05","AO02","AO02","AO02","AO01","AO03","AO04","AO01","AO04","AO03","AO01","AO03","AO04","AO03","AO03","AO03","AO03","",""
"28","2023-09-21 17:26:50","3","gl","570776539","2023-09-21 17:24:46","2023-09-21 17:26:50","AO01","AO05","AO02","AO02","AO03","AO02","AO02","AO02","AO01","AO01","AO04","AO01","AO03","AO01","AO03","AO01","AO03","AO03","",""
"29","2023-09-21 17:27:56","3","gl","1820242050","2023-09-21 17:25:21","2023-09-21 17:27:56","AO01","AO05","AO02","AO02","AO02","AO02","AO01","AO01","AO01","AO01","AO01","AO01","AO03","AO04","AO04","AO01","AO01","AO03","Opera GX",""
"30","2023-09-21 17:27:32","3","gl","33147925","2023-09-21 17:25:30","2023-09-21 17:27:32","AO01","AO05","AO02","AO02","AO02","AO03","AO01","AO05","AO04","AO01","AO04","AO01","AO03","AO03","AO03","AO03","AO04","AO03","",""
"31","2023-09-21 17:27:17","3","gl","1977877245","2023-09-21 17:25:37","2023-09-21 17:27:17","AO01","AO05","AO03","AO02","AO02","AO02","AO02","AO02","AO01","AO01","AO01","AO03","AO03","AO03","AO03","AO01","AO03","AO03","",""
"32","2023-09-21 17:30:35","3","gl","464332218","2023-09-21 17:25:38","2023-09-21 17:30:35","AO01","AO05","AO02","AO02","AO02","AO02","AO03","AO02","AO01","AO04","AO03","AO04","AO03","AO03","AO03","AO03","AO03","AO03","","¡Muy interesante el curso!"
"33","2023-09-21 17:28:39","3","gl","1385156818","2023-09-21 17:25:53","2023-09-21 17:28:39","AO01","AO05","AO02","AO02","AO02","AO03","AO01","AO02","AO04","AO04","AO03","AO01","AO03","AO03","AO03","AO03","AO03","AO03","no conozco otras","pongan en español la encuesta, gracias "
"36","2023-09-22 11:44:09","3","es","1232117784","2023-09-22 11:41:35","2023-09-22 11:44:09","AO03","AO05","AO02","AO01","AO02","AO02","AO02","AO02","AO01","AO01","AO03","AO03","AO01","AO01","AO01","AO04","AO04","AO03","",""
"37","2023-09-22 12:15:01","3","es","446236272","2023-09-22 12:12:07","2023-09-22 12:15:01","AO01","AO05","AO02","AO02","AO02","AO02","AO02","AO05","AO01","AO01","AO04","AO01","AO03","AO04","AO03","AO04","AO03","AO03","",""
"39","2023-09-23 10:30:20","3","gl","1930055623","2023-09-23 10:28:53","2023-09-23 10:30:20","AO03","AO05","AO01","AO02","AO02","AO02","AO02","AO01","AO01","AO01","AO01","AO01","AO01","AO01","AO01","AO01","AO01","AO04","",""
"43","2023-09-23 10:40:22","3","gl","2110434876","2023-09-23 10:39:28","2023-09-23 10:40:22","AO02","AO05","AO01","AO02","AO02","AO02","AO02","AO01","AO01","AO01","AO01","AO01","AO03","AO01","AO04","AO03","AO03","AO03","",""
"44","2023-09-23 10:49:31","3","gl","707323194","2023-09-23 10:48:38","2023-09-23 10:49:31","AO03","AO05","AO02","AO03","AO02","AO03","AO01","AO05","AO01","AO01","AO01","AO01","AO03","AO04","AO04","AO01","AO01","AO03","",""
"46","2023-09-23 11:31:39","3","gl","890584288","2023-09-23 11:29:44","2023-09-23 11:31:39","AO01","AO05","AO01","AO02","AO02","AO02","AO01","AO05","AO01","AO01","AO01","AO01","AO03","AO01","AO04","AO01","AO01","AO04","",""
"49","2023-09-23 13:09:22","3","gl","574809288","2023-09-23 13:00:46","2023-09-23 13:09:22","AO03","AO05","AO01","AO02","AO02","AO02","AO02","AO01","AO01","AO01","AO04","AO01","AO03","AO01","AO01","AO01","AO04","AO01","Filezilla, Thunderbird e Blender",""
"52","2023-09-23 15:10:29","3","gl","469460574","2023-09-23 15:08:48","2023-09-23 15:10:29","AO03","AO05","AO01","AO02","AO02","AO01","AO01","AO05","AO01","AO01","AO01","AO01","AO03","AO01","AO03","AO01","AO01","AO01","",""
"56","2023-09-23 21:29:46","3","gl","47732549","2023-09-23 21:28:03","2023-09-23 21:29:46","AO03","AO05","AO02","AO01","AO02","AO02","AO01","AO01","AO04","AO01","AO01","AO01","AO03","AO01","AO01","AO01","AO04","AO01","",""
"57","2023-09-24 04:31:03","3","gl","593079791","2023-09-24 04:29:26","2023-09-24 04:31:03","AO03","AO05","AO01","AO02","AO02","AO02","AO03","AO01","AO01","AO01","AO01","AO01","AO01","AO01","AO01","AO01","AO01","AO01","",""
"58","2023-09-26 16:21:16","3","gl","696418105","2023-09-26 16:19:23","2023-09-26 16:21:16","AO01","AO03","AO03","AO03","AO03","AO03","AO01","AO02","AO04","AO01","AO01","AO01","AO03","AO03","AO03","AO03","AO03","AO03","",""
"59","2023-09-26 16:22:15","3","gl","872103090","2023-09-26 16:19:56","2023-09-26 16:22:15","AO01","AO03","AO03","AO01","AO03","AO03","AO03","AO02","AO04","AO04","AO03","AO01","AO03","AO01","AO03","AO01","AO04","AO03","Scratch",""
"60","2023-09-26 16:22:25","3","gl","1185283949","2023-09-26 16:20:30","2023-09-26 16:22:25","AO01","AO03","AO02","AO03","AO02","AO01","AO01","AO05","AO01","AO04","AO04","AO01","AO03","AO04","AO03","AO01","AO03","AO03","",""
"61","2023-09-27 16:04:41","3","gl","1837833064","2023-09-27 16:03:29","2023-09-27 16:04:41","AO01","AO03","AO03","AO03","AO03","AO03","AO02","AO02","AO01","AO04","AO03","AO04","AO03","AO03","AO03","AO04","AO03","AO03","",""
"62","2023-09-29 10:01:50","3","gl","1749579003","2023-09-29 09:55:47","2023-09-29 10:01:50","AO01","AO05","AO02","AO01","AO02","AO01","AO02","AO01","AO01","AO01","AO04","AO01","AO04","AO01","AO04","AO04","AO04","AO04","Open erp",""
"63","2023-09-29 10:14:36","3","gl","1762398160","2023-09-29 10:12:39","2023-09-29 10:14:36","AO03","AO04","AO03","AO02","AO02","AO03","AO01","AO02","AO01","AO01","AO04","AO04","AO03","AO03","AO03","AO03","AO01","AO03","",""
"64","2023-09-29 10:18:03","3","gl","361883411","2023-09-29 10:16:27","2023-09-29 10:18:03","AO03","AO05","AO01","AO01","AO02","AO03","AO01","AO05","AO01","AO04","AO04","AO04","AO03","AO03","AO04","AO04","AO04","AO04","",""
"65","2023-09-29 10:19:20","3","gl","1895960380","2023-09-29 10:17:22","2023-09-29 10:19:20","AO02","AO05","AO02","AO01","AO02","AO01","AO03","AO05","AO01","AO01","AO01","AO01","AO03","AO01","AO04","AO01","AO01","AO03","",""
"66","2023-09-29 10:22:21","3","gl","622415043","2023-09-29 10:17:49","2023-09-29 10:22:21","AO02","AO05","AO02","AO01","AO02","AO03","AO02","AO02","AO01","AO01","AO03","AO01","AO03","AO01","AO03","AO01","AO01","AO03","Godot",""
"67","2023-09-29 10:20:01","3","gl","730226488","2023-09-29 10:18:38","2023-09-29 10:20:01","AO02","AO05","AO02","AO01","AO02","AO03","AO03","AO01","AO01","AO01","AO01","AO01","AO03","AO01","AO03","AO01","AO01","AO03","",""
"68","2023-09-29 10:21:36","3","gl","1310586497","2023-09-29 10:19:39","2023-09-29 10:21:36","AO02","AO05","AO03","AO01","AO02","AO01","AO01","AO01","AO01","AO01","AO03","AO01","AO03","AO04","AO03","AO01","AO03","AO03","",""
"69","2023-09-29 10:26:40","3","gl","2084055702","2023-09-29 10:24:57","2023-09-29 10:26:40","AO02","AO05","AO01","AO02","AO02","AO03","AO01","AO02","AO04","AO01","AO03","AO03","AO03","AO01","AO01","AO01","AO03","AO03","",""
"70","2023-09-29 10:26:56","3","gl","706892994","2023-09-29 10:25:28","2023-09-29 10:26:56","AO02","AO05","AO02","AO03","AO03","AO03","AO01","AO02","AO01","AO01","AO03","AO03","AO03","AO03","AO03","AO03","AO01","AO04","",""
"71","2023-09-29 10:49:31","3","gl","1292545573","2023-09-29 10:48:35","2023-09-29 10:49:31","AO01","AO05","AO01","AO02","AO02","AO02","AO01","AO02","AO04","AO04","AO04","AO04","AO03","AO03","AO03","AO04","AO01","AO03","",""
"72","2023-09-29 10:50:09","3","gl","2065752689","2023-09-29 10:48:52","2023-09-29 10:50:09","AO01","AO05","AO01","AO01","AO02","AO01","AO03","AO02","AO01","AO01","AO03","AO01","AO03","AO04","AO03","AO03","AO04","AO03","",""
"73","2023-09-29 10:51:26","3","gl","1273185639","2023-09-29 10:50:20","2023-09-29 10:51:26","AO01","AO05","AO02","AO03","AO03","AO01","AO02","AO02","AO01","AO04","AO03","AO03","AO03","AO03","AO03","AO04","AO04","AO03","",""
"74","2023-09-29 10:51:56","3","gl","253586521","2023-09-29 10:50:25","2023-09-29 10:51:56","AO01","AO05","AO02","AO01","AO02","AO01","AO02","AO05","AO01","AO01","AO04","AO03","AO03","AO01","AO01","AO01","AO04","AO03","",""
"75","2023-09-29 10:56:28","3","gl","2033201025","2023-09-29 10:54:06","2023-09-29 10:56:28","AO01","AO05","AO02","AO02","AO02","AO02","AO02","AO05","AO01","AO01","AO04","AO01","AO03","AO04","AO03","AO01","AO01","AO04","VSCode, Sublime Text, Notepad++...",""
"76","2023-09-29 10:59:07","3","gl","540008262","2023-09-29 10:56:16","2023-09-29 10:59:07","AO03","AO05","AO02","AO03","AO03","AO03","AO01","AO02","AO01","AO01","AO03","AO01","AO01","AO01","AO04","AO03","AO03","AO03","Tool24",""
"77","2023-09-29 11:07:05","3","gl","386669145","2023-09-29 11:04:57","2023-09-29 11:07:05","AO01","AO05","AO02","AO01","AO03","AO03","AO03","AO03","AO04","AO01","AO04","AO03","AO03","AO01","AO01","AO03","AO04","AO03","",""
"80","2023-09-29 11:35:47","3","gl","847463637","2023-09-29 11:30:16","2023-09-29 11:35:47","AO02","AO05","AO03","AO03","AO02","AO01","AO01","AO02","AO01","AO01","AO03","AO01","AO03","AO03","AO03","AO04","AO04","AO03","",""
"81","2023-09-29 11:35:48","3","es","1931695653","2023-09-29 11:31:25","2023-09-29 11:35:48","AO02","AO05","AO03","AO03","AO02","AO01","AO01","AO02","AO01","AO01","AO03","AO04","AO03","AO01","AO03","AO01","AO01","AO03","",""
"82","2023-09-29 11:41:10","3","gl","513882994","2023-09-29 11:39:40","2023-09-29 11:41:10","AO02","AO05","AO02","AO01","AO02","AO03","AO01","AO02","AO01","AO01","AO03","AO04","AO04","AO04","AO04","AO04","AO01","AO03","",""
"83","2023-09-29 11:41:04","3","gl","1360796791","2023-09-29 11:39:41","2023-09-29 11:41:04","AO02","AO05","AO02","AO01","AO02","AO01","AO02","AO05","AO01","AO01","AO03","AO01","AO03","AO04","AO03","AO01","AO01","AO03","Blender",""
"84","2023-09-29 11:41:40","3","gl","1175220778","2023-09-29 11:39:48","2023-09-29 11:41:40","AO02","AO05","AO02","AO01","AO02","AO01","AO02","AO02","AO01","AO01","AO03","AO04","AO03","AO03","AO03","AO04","AO01","AO03","",""
"86","2023-09-29 12:00:45","3","gl","1720211220","2023-09-29 11:58:23","2023-09-29 12:00:44","AO03","AO05","AO02","AO03","AO02","AO03","AO01","AO02","AO04","AO01","AO03","AO04","AO04","AO01","AO01","AO04","AO03","AO03","Qgis","No"
"88","2023-09-29 12:16:49","3","gl","411727737","2023-09-29 12:15:02","2023-09-29 12:16:49","AO03","AO05","AO02","AO01","AO02","AO03","AO01","AO01","AO01","AO01","AO01","AO01","AO03","AO01","AO01","AO04","AO04","AO03","OpenFOAM",""
"89","2023-09-29 12:21:19","3","es","957837053","2023-09-29 12:19:59","2023-09-29 12:21:19","AO01","AO05","AO02","AO02","AO02","AO02","AO03","AO02","AO04","AO01","AO01","AO01","AO04","AO01","AO04","AO01","AO01","AO03","",""
"90","2023-09-29 12:37:09","3","gl","1471206705","2023-09-29 12:32:32","2023-09-29 12:37:09","AO02","AO05","AO02","AO03","AO03","AO01","AO01","AO02","AO01","AO01","AO01","AO01","AO03","AO04","AO03","AO03","AO03","AO03","",""
"91","2023-09-29 12:58:00","3","gl","1341938420","2023-09-29 12:56:19","2023-09-29 12:58:00","AO03","AO05","AO02","AO01","AO02","AO02","AO01","AO02","AO01","AO01","AO03","AO03","AO03","AO01","AO03","AO03","AO03","AO03","",""
"92","2023-09-29 13:02:42","3","gl","1542572192","2023-09-29 13:00:23","2023-09-29 13:02:42","AO03","AO05","AO01","AO02","AO02","AO02","AO02","AO01","AO01","AO01","AO04","AO01","AO03","AO04","AO04","AO01","AO03","AO03","FreeCAD",""
"93","2023-09-29 13:36:58","3","gl","1453534826","2023-09-29 13:34:55","2023-09-29 13:36:58","AO02","AO05","AO02","AO03","AO03","AO01","AO03","AO02","AO01","AO04","AO03","AO03","AO03","AO04","AO03","AO04","AO01","AO03","",""
"94","2023-09-29 13:36:52","3","gl","1255215433","2023-09-29 13:34:58","2023-09-29 13:36:52","AO03","AO05","AO02","AO01","AO02","AO03","AO02","AO02","AO01","AO01","AO04","AO01","AO03","AO04","AO01","AO03","AO03","AO03","",""
"95","2023-09-29 13:38:26","3","gl","791478845","2023-09-29 13:35:15","2023-09-29 13:38:26","AO03","AO05","AO02","AO02","AO02","AO01","AO02","AO03","AO01","AO04","AO04","AO01","AO03","AO01","AO01","AO01","AO01","AO03","",""
"96","2023-09-29 13:37:01","3","es","685704318","2023-09-29 13:35:22","2023-09-29 13:37:01","AO02","AO05","AO01","AO02","AO02","AO01","AO03","AO01","AO01","AO01","AO04","AO01","AO04","AO01","AO01","AO01","AO01","AO03","",""
"97","2023-09-29 13:37:20","3","gl","737229195","2023-09-29 13:35:31","2023-09-29 13:37:20","AO03","AO05","AO02","AO02","AO02","AO02","AO01","AO01","AO01","AO01","AO04","AO01","AO03","AO01","AO01","AO04","AO01","AO04","FreeCAD",""
"98","2023-09-29 13:37:37","3","gl","683059167","2023-09-29 13:35:35","2023-09-29 13:37:37","AO02","AO05","AO02","AO02","AO02","AO01","AO02","AO02","AO01","AO01","AO01","AO01","AO03","AO01","AO04","AO01","AO01","AO03","Freecad
Arduino",""
"99","2023-09-29 13:37:30","3","gl","628221709","2023-09-29 13:35:57","2023-09-29 13:37:30","AO03","AO05","AO02","AO03","AO02","AO01","AO01","AO03","AO04","AO04","AO04","AO01","AO03","AO04","AO04","AO04","AO01","AO03","",""
"100","2023-09-29 13:38:46","3","gl","494708017","2023-09-29 13:36:37","2023-09-29 13:38:46","AO03","AO05","AO02","AO01","AO02","AO02","AO02","AO05","AO01","AO01","AO03","AO03","AO03","AO01","AO04","AO01","AO04","AO03","",""
"102","2023-09-29 13:57:32","3","gl","233500501","2023-09-29 13:56:28","2023-09-29 13:57:32","AO02","AO05","AO01","AO01","AO02","AO01","AO02","AO01","AO01","AO01","AO01","AO04","AO03","AO01","AO04","AO01","AO01","AO03","Blender, Arquimedes, FreeCAD",""
"103","2023-09-29 14:01:09","3","gl","1305237028","2023-09-29 13:56:36","2023-09-29 14:01:09","AO03","AO02","AO03","AO03","","AO01","AO03","AO02","AO01","AO04","AO03","AO03","AO03","AO03","AO03","AO01","AO03","AO03","",""
"108","2023-09-29 21:55:33","3","gl","427464069","2023-09-29 21:53:13","2023-09-29 21:55:33","AO01","AO05","AO01","AO02","AO02","AO02","AO02","AO01","AO01","AO01","AO01","AO01","AO01","AO01","AO01","AO01","AO01","AO01","",""
"109","2023-09-29 22:03:10","3","gl","320349714","2023-09-29 21:59:38","2023-09-29 22:03:10","AO03","AO05","AO01","AO02","AO02","AO02","AO02","AO01","AO01","AO01","AO01","AO01","AO01","AO01","AO01","AO04","AO01","AO01","Startpage, SimpleMobileTools (Android), Bitwarden, FreeOTP, Proton (ecosistema enteiro), Open Street Maps...",""
"111","2023-09-29 22:25:25","3","gl","1794342342","2023-09-29 22:23:32","2023-09-29 22:25:25","AO03","AO05","AO01","AO02","AO02","AO02","AO02","AO01","AO01","AO01","AO04","AO01","AO01","AO01","AO01","AO01","AO01","AO01","Netxcloud, Odoo comunity. ",""
"113","2023-09-30 11:13:46","3","gl","2089023326","2023-09-30 11:11:40","2023-09-30 11:13:46","AO03","AO05","AO02","AO02","AO03","AO03","AO02","AO05","AO01","AO01","AO01","AO01","AO01","AO01","AO04","AO01","AO01","AO03","",""
"114","2023-09-30 17:27:33","3","gl","644984433","2023-09-30 15:46:19","2023-09-30 17:27:33","AO02","AO05","AO01","AO02","AO02","AO01","AO03","AO01","AO01","AO01","AO01","AO01","AO01","AO01","AO01","AO04","AO04","AO04","Write (tomar notas escritas a man na tablet)
Syncthing (sincronización entre dispositivos)
Anki (flashcards)
KeepassXC (xestor contrasinais)
...",""
"115","2023-09-30 19:53:46","3","gl","817996248","2023-09-30 19:52:36","2023-09-30 19:53:46","AO01","AO03","AO02","AO02","AO02","AO03","AO02","AO02","AO01","AO01","AO03","AO04","AO03","AO01","AO03","AO01","AO04","AO03","",""
"116","2023-10-02 09:58:52","3","gl","23683330","2023-10-02 09:56:07","2023-10-02 09:58:52","AO03","AO05","AO01","AO01","AO02","AO03","AO01","AO01","AO01","AO01","AO01","AO01","AO03","AO04","AO01","AO03","AO03","AO03","",""
"117","2023-10-03 10:57:02","3","gl","1796569134","2023-10-03 10:54:11","2023-10-03 10:57:02","AO02","AO03","AO02","AO01","AO02","AO03","AO02","AO01","AO01","AO01","AO01","AO03","AO03","AO03","AO03","AO04","AO03","AO03","Tor? ",""
"118","2023-10-03 10:58:16","3","gl","721663062","2023-10-03 10:56:44","2023-10-03 10:58:16","AO02","AO03","AO02","AO03","AO02","AO03","AO03","AO05","AO01","AO01","AO03","AO04","AO03","AO03","AO03","AO03","AO03","AO03","",""
"119","2023-10-03 11:00:35","3","gl","182473199","2023-10-03 10:57:39","2023-10-03 11:00:35","AO02","AO03","AO02","AO02","AO02","AO01","AO01","AO03","AO01","AO01","AO04","AO03","AO03","AO03","AO03","AO03","AO03","AO03","Non sei ningunhas outras",""
"120","2023-10-03 11:00:13","3","gl","94440447","2023-10-03 10:58:08","2023-10-03 11:00:13","AO02","AO03","AO03","AO03","AO03","AO03","AO02","AO02","AO01","AO01","AO03","AO03","AO03","AO04","AO03","AO03","AO03","AO03","","Siento saber tan poco"
"121","2023-10-03 11:01:23","3","gl","1899091404","2023-10-03 10:58:27","2023-10-03 11:01:23","AO02","AO03","AO01","AO02","AO02","AO02","AO02","AO01","AO01","AO01","AO03","AO01","AO03","AO01","AO03","AO01","AO03","AO03","",""
"122","2023-10-03 11:00:36","3","gl","2065651574","2023-10-03 10:58:30","2023-10-03 11:00:36","AO02","AO03","AO02","AO03","AO02","AO03","AO01","AO05","AO01","AO01","AO01","AO04","AO03","AO03","AO03","AO03","AO03","AO03","Opera",""
"123","2023-10-03 11:04:29","3","gl","143423968","2023-10-03 11:02:37","2023-10-03 11:04:29","AO02","AO05","AO01","AO02","AO02","AO01","AO03","AO05","AO01","AO01","AO01","AO04","AO04","AO01","AO01","AO04","AO03","AO03","",""
"124","2023-10-03 11:07:31","3","gl","1125265837","2023-10-03 11:05:09","2023-10-03 11:07:31","AO02","AO05","AO02","AO02","AO02","AO01","AO01","AO02","AO01","AO01","AO04","AO04","AO03","AO01","AO01","AO01","AO04","AO03","R commander
Swi-prolog
virtualbox",""
"125","2023-10-03 11:07:26","3","gl","1531316373","2023-10-03 11:05:09","2023-10-03 11:07:26","AO02","AO05","AO02","AO02","AO02","AO01","AO01","AO01","AO04","AO01","AO03","AO01","AO03","AO01","AO01","AO01","AO04","AO03","rcomander",""
"126","2023-10-03 11:08:25","3","gl","1359528187","2023-10-03 11:05:16","2023-10-03 11:08:25","AO02","AO05","AO02","AO02","AO02","AO01","AO02","AO02","AO01","AO01","AO04","AO01","AO03","AO03","AO04","AO04","AO04","AO03","Virtualbox 
Vscode
",""
"127","2023-10-03 11:09:12","3","gl","1038730299","2023-10-03 11:07:55","2023-10-03 11:09:12","AO03","AO03","AO03","AO03","AO02","AO02","AO01","AO04","AO01","AO01","AO03","AO03","AO03","AO03","AO03","AO03","AO03","AO03","",""
"128","2023-10-03 11:09:42","3","gl","26855903","2023-10-03 11:07:57","2023-10-03 11:09:42","AO03","AO03","AO03","AO01","AO01","AO01","AO01","AO02","AO01","AO04","AO04","AO04","AO03","AO04","AO03","AO03","AO03","AO03","",""
"129","2023-10-03 11:13:49","3","gl","89739553","2023-10-03 11:12:00","2023-10-03 11:13:49","AO03","AO03","AO02","AO03","AO02","AO01","AO01","AO02","AO04","AO04","AO03","AO01","AO03","AO03","AO03","AO01","AO01","AO03","",""
"130","2023-10-03 11:29:09","3","gl","1321752926","2023-10-03 11:26:58","2023-10-03 11:29:09","AO02","AO02","AO02","AO01","AO02","AO01","AO02","AO02","AO01","AO01","AO04","AO03","AO03","AO01","AO03","AO03","AO03","AO03","",""
"131","2023-10-03 11:29:02","3","gl","686848336","2023-10-03 11:26:59","2023-10-03 11:29:02","AO02","AO03","AO03","AO03","AO02","AO01","AO03","AO02","AO01","AO04","AO03","AO01","AO03","AO01","AO04","AO01","AO04","AO03","",""
"132","2023-10-03 11:46:42","3","gl","1868024367","2023-10-03 11:42:46","2023-10-03 11:46:42","AO02","AO05","AO02","AO01","AO02","AO01","AO03","AO05","AO01","AO04","AO03","AO03","AO03","AO01","AO03","AO04","AO01","AO03","Brave y discord ",""
"133","2023-10-03 11:47:27","3","gl","652095610","2023-10-03 11:45:48","2023-10-03 11:47:27","AO02","AO03","AO02","AO02","AO02","AO02","AO02","AO02","AO04","AO04","AO03","AO03","AO03","AO03","AO03","AO03","AO03","AO03","Ningunha","Non"
"134","2023-10-03 11:49:57","3","es","1062141821","2023-10-03 11:46:05","2023-10-03 11:49:57","AO02","AO03","AO03","AO03","AO03","AO01","AO01","AO02","AO01","AO01","AO03","AO03","AO03","AO03","AO03","AO03","AO03","AO03","Ninguna","No"
"135","2023-10-03 11:56:11","3","gl","2024473075","2023-10-03 11:55:11","2023-10-03 11:56:11","AO01","AO03","AO02","AO01","AO02","AO01","AO02","AO05","AO01","AO01","AO03","AO01","AO03","AO01","AO01","AO01","AO04","AO03","","no 
"
"137","2023-10-03 12:00:07","3","gl","1119188785","2023-10-03 11:58:35","2023-10-03 12:00:07","AO01","AO05","AO03","AO02","AO02","AO02","AO02","AO02","AO01","AO01","AO03","AO03","AO03","AO01","AO03","AO04","AO04","AO03","",""
"138","2023-10-03 12:01:14","3","gl","288541787","2023-10-03 12:00:05","2023-10-03 12:01:14","AO01","AO05","AO02","AO02","AO02","AO01","AO01","AO02","AO04","AO04","AO04","AO01","AO03","AO01","AO01","AO01","AO01","AO03","",""
"139","2023-10-03 12:02:37","3","gl","1698848698","2023-10-03 12:01:18","2023-10-03 12:02:37","AO01","AO05","AO01","AO01","AO02","AO01","AO01","AO01","AO01","AO01","AO01","AO01","AO03","AO01","AO03","AO01","AO03","AO03","linux",""
"140","2023-10-03 12:08:05","3","gl","2074264427","2023-10-03 12:06:27","2023-10-03 12:08:05","AO02","AO03","AO02","AO03","AO03","AO01","AO02","AO02","AO01","AO01","AO03","AO03","AO03","AO03","AO03","AO03","AO03","AO03","",""
"141","2023-10-03 12:12:36","3","gl","789389314","2023-10-03 12:10:17","2023-10-03 12:12:36","AO01","AO05","AO03","AO03","AO03","AO03","AO03","AO02","AO04","AO04","AO03","AO03","AO03","AO03","AO03","AO04","AO03","AO03","Non sei","No"
"142","2023-10-03 12:12:45","3","gl","314959369","2023-10-03 12:10:19","2023-10-03 12:12:45","AO01","AO05","AO02","AO03","AO02","AO02","AO01","AO02","AO01","AO01","AO03","AO03","AO03","AO03","AO03","AO03","AO03","AO03","",""
"143","2023-10-03 12:13:00","3","gl","808143733","2023-10-03 12:11:05","2023-10-03 12:13:00","AO01","AO05","AO02","AO03","AO02","AO03","AO01","AO02","AO01","AO04","AO03","AO03","AO03","AO01","AO01","AO01","AO03","AO03","",""
"144","2023-10-03 12:18:31","3","gl","2143952522","2023-10-03 12:15:31","2023-10-03 12:18:31","AO01","AO03","AO01","AO02","AO02","AO01","AO01","AO01","AO01","AO01","AO04","AO01","AO04","AO01","AO01","AO04","AO01","AO04","Kali linux",""
"145","2023-10-03 12:17:51","3","gl","661285878","2023-10-03 12:15:35","2023-10-03 12:17:51","AO01","AO05","AO02","AO02","AO02","AO02","AO02","AO03","AO01","AO01","AO04","AO01","AO03","AO03","AO03","AO03","AO03","AO03","",""
"146","2023-10-03 12:19:26","3","gl","2006194675","2023-10-03 12:15:46","2023-10-03 12:19:26","AO01","AO05","AO03","AO03","AO02","AO01","AO03","AO03","AO01","AO01","AO04","AO04","AO01","AO01","AO04","AO01","AO01","AO04","Uso pero non coñezo se son libres","Paréceme boa iniciativa"
"147","2023-10-03 12:18:14","3","gl","2049087286","2023-10-03 12:15:47","2023-10-03 12:18:14","AO01","AO05","AO02","AO02","AO02","AO01","AO01","AO05","AO01","AO01","AO04","AO04","AO03","AO01","AO03","AO04","AO04","AO03","",""
"148","2023-10-03 12:17:29","3","gl","1081759106","2023-10-03 12:16:03","2023-10-03 12:17:29","AO01","AO05","AO01","AO01","AO02","AO02","AO01","AO02","AO01","AO01","AO03","AO03","AO01","AO01","AO03","AO03","AO03","AO03","",""
"149","2023-10-03 12:21:19","3","gl","1735221513","2023-10-03 12:16:59","2023-10-03 12:21:19","AO01","AO05","AO03","AO03","AO03","AO03","AO02","AO05","AO01","AO04","AO03","AO03","AO03","AO04","AO03","AO03","AO03","AO03","","No, muchas gracias por la encuesta"
"150","2023-10-03 12:21:51","3","gl","2134220122","2023-10-03 12:20:21","2023-10-03 12:21:51","AO01","AO05","AO01","AO02","AO02","AO01","AO02","AO01","AO01","AO01","AO01","AO01","AO04","AO01","AO01","AO04","AO04","AO04","TeX Studio","No"
"151","2023-10-03 12:26:08","3","gl","1804749326","2023-10-03 12:24:43","2023-10-03 12:26:08","AO02","AO03","AO02","AO02","AO02","AO03","AO01","AO02","AO04","AO01","AO03","AO01","AO03","AO03","AO03","AO03","AO03","AO03","",""
"152","2023-10-03 12:27:35","3","gl","1457599472","2023-10-03 12:25:30","2023-10-03 12:27:35","AO01","AO03","AO02","AO03","AO02","AO02","AO01","AO02","AO04","AO01","AO04","AO04","AO04","AO04","AO04","AO03","AO03","AO03","",""
"153","2023-10-03 12:28:12","3","es","1201714403","2023-10-03 12:25:49","2023-10-03 12:28:12","AO01","AO05","AO02","AO01","AO02","AO01","AO01","AO03","AO01","AO01","AO04","AO01","AO04","AO04","AO03","AO03","AO03","AO03","Codebloks","Gracias por la encuesta "
"154","2023-10-03 12:27:15","3","gl","1799511743","2023-10-03 12:26:15","2023-10-03 12:27:15","AO01","AO05","AO01","AO03","AO02","AO03","AO01","AO02","AO01","AO01","AO03","AO04","AO01","AO01","AO04","AO01","AO04","AO03","",""
"155","2023-10-03 12:27:28","3","gl","418591340","2023-10-03 12:26:16","2023-10-03 12:27:28","AO01","AO05","AO01","AO01","AO02","AO01","AO02","AO02","AO01","AO01","AO04","AO01","AO04","AO01","AO01","AO01","AO01","AO04","",""
"156","2023-10-03 12:44:08","3","gl","827846831","2023-10-03 12:42:57","2023-10-03 12:44:08","AO03","AO05","AO01","AO01","AO02","AO01","AO01","AO05","AO01","AO01","AO04","AO01","AO03","AO01","AO03","AO01","AO01","AO03","",""
"157","2023-10-03 12:44:57","3","gl","68920516","2023-10-03 12:43:08","2023-10-03 12:44:57","AO03","AO05","AO01","AO01","AO02","AO01","AO01","AO02","AO04","AO01","AO01","AO01","AO03","AO01","AO03","AO03","AO03","AO03","",""
"158","2023-10-03 13:37:26","3","gl","806820779","2023-10-03 13:31:24","2023-10-03 13:37:26","AO01","AO05","AO02","AO02","AO03","AO02","AO01","AO02","AO01","AO01","AO03","AO03","AO03","AO01","AO01","AO04","AO03","AO03","",""
"159","2023-10-04 10:25:58","3","gl","281905003","2023-10-04 10:24:47","2023-10-04 10:25:58","AO02","AO05","AO01","AO01","AO02","AO02","AO01","AO02","AO04","AO01","AO01","AO01","AO03","AO03","AO03","AO01","AO01","AO03","",""
"160","2023-10-04 10:28:02","3","gl","1021930020","2023-10-04 10:26:24","2023-10-04 10:28:02","AO01","AO05","AO03","AO03","AO02","AO01","AO01","AO02","AO04","AO01","AO03","AO03","AO03","AO01","AO03","AO01","AO03","AO03","Autocad",""
"161","2023-10-04 10:32:43","3","gl","558394331","2023-10-04 10:30:03","2023-10-04 10:32:43","AO02","AO05","AO02","AO01","AO02","AO02","AO02","AO05","AO01","AO01","AO03","AO01","AO03","AO01","AO04","AO01","AO01","AO03","",""
"162","2023-10-04 10:43:22","3","gl","1259328162","2023-10-04 10:40:07","2023-10-04 10:43:22","AO02","AO05","AO02","AO03","AO02","AO03","AO03","AO02","AO04","AO04","AO04","AO01","AO03","AO04","AO03","AO01","AO03","AO03","",""
"163","2023-10-04 10:43:12","3","gl","1134459980","2023-10-04 10:40:21","2023-10-04 10:43:12","AO02","AO05","AO02","AO03","AO02","AO03","AO01","AO02","AO01","AO01","AO03","AO03","AO03","AO04","AO04","AO04","AO03","AO03","",""
"164","2023-10-04 10:53:56","3","gl","1200791409","2023-10-04 10:52:49","2023-10-04 10:53:56","AO03","AO05","AO02","AO01","AO02","AO01","AO01","AO02","AO01","AO04","AO03","AO01","AO03","AO03","AO03","AO03","AO01","AO03","",""
"165","2023-10-04 11:00:13","3","gl","895806442","2023-10-04 10:54:11","2023-10-04 11:00:13","AO03","AO05","AO01","AO02","AO02","AO02","AO02","AO01","AO01","AO01","AO04","AO01","AO03","AO01","AO01","AO04","AO04","AO01","Visual Studio Code, Apache, PHP, NodeJS...",""
"166","2023-10-04 11:06:09","3","gl","1179192144","2023-10-04 11:04:53","2023-10-04 11:06:09","AO02","AO05","AO02","AO02","AO02","AO02","AO02","AO02","AO01","AO04","AO04","AO04","AO04","AO04","AO04","AO04","AO04","AO04","",""
"167","2023-10-04 11:10:14","3","gl","1933126784","2023-10-04 11:09:22","2023-10-04 11:10:14","AO01","AO05","AO01","AO03","AO02","AO03","AO01","AO02","AO01","AO04","AO03","AO03","AO03","AO04","AO03","AO04","AO04","AO04","",""
"168","2023-10-04 11:12:35","3","gl","923334875","2023-10-04 11:11:07","2023-10-04 11:12:35","AO03","AO05","AO02","AO02","AO02","AO02","AO01","AO02","AO04","AO04","AO03","AO04","AO03","AO03","AO03","AO03","AO03","AO03","",""
"169","2023-10-04 11:35:25","3","gl","1087926160","2023-10-04 11:34:22","2023-10-04 11:35:25","AO02","AO05","AO02","AO01","AO02","AO01","AO03","AO02","AO01","AO01","AO03","AO04","AO03","AO03","AO04","AO03","AO03","AO03","",""
"170","2023-10-04 12:03:41","3","gl","971541501","2023-10-04 12:02:34","2023-10-04 12:03:41","AO02","AO05","AO02","AO02","AO02","AO03","AO02","AO04","AO01","AO01","AO03","AO01","AO03","AO01","AO04","AO04","AO04","AO03","",""
"171","2023-10-04 12:10:18","3","gl","1103947596","2023-10-04 12:09:01","2023-10-04 12:10:18","AO02","AO05","AO03","AO03","AO03","AO03","AO01","AO02","AO01","AO04","AO03","AO03","AO03","AO03","AO03","AO03","AO03","AO03","",""
"172","2023-10-04 12:12:06","3","gl","752655495","2023-10-04 12:10:00","2023-10-04 12:12:06","AO03","AO05","AO01","AO01","AO02","AO01","AO01","AO01","AO01","AO01","AO04","AO04","AO04","AO01","AO04","AO01","AO04","AO04","","El software es gratis porque  no pagamos dinero, pero pagamos con nuestros datos en muchas ocasiones. Dudoso el concepto de gratuito"
"173","2023-10-04 12:11:28","3","es","1604882898","2023-10-04 12:10:03","2023-10-04 12:11:28","AO03","AO05","AO01","AO01","AO02","AO01","AO01","AO02","AO04","AO01","AO03","AO01","AO03","AO03","AO03","AO03","AO03","AO03","",""
"174","2023-10-04 12:12:13","3","gl","727259544","2023-10-04 12:10:36","2023-10-04 12:12:13","AO03","AO05","AO01","AO01","AO02","AO02","AO01","AO02","AO01","AO01","AO01","AO01","AO01","AO01","AO01","AO01","AO01","AO01","",""
"175","2023-10-04 12:12:12","3","gl","841797031","2023-10-04 12:10:48","2023-10-04 12:12:12","AO02","AO05","AO02","AO01","AO02","AO01","AO03","AO02","AO01","AO01","AO04","AO01","AO03","AO01","AO01","AO04","AO01","AO03","",""
"176","2023-10-04 12:24:43","3","gl","575486058","2023-10-04 12:18:05","2023-10-04 12:24:43","AO03","AO05","AO02","AO01","AO02","AO01","AO02","AO02","AO01","AO01","AO03","AO01","AO03","AO03","AO03","AO03","AO01","AO03","Opera, Python, Discord, Adobe Acrobat.",""
"177","2023-10-04 12:23:07","3","gl","1704080829","2023-10-04 12:21:32","2023-10-04 12:23:07","AO02","AO05","AO02","AO03","AO02","AO01","AO01","AO04","AO04","AO03","AO03","AO03","AO03","AO03","AO03","AO03","AO03","AO03","",""
"178","2023-10-04 12:23:13","3","gl","824996925","2023-10-04 12:21:39","2023-10-04 12:23:13","AO02","AO05","AO02","AO02","AO02","AO01","AO01","AO02","AO03","AO01","AO04","AO04","AO04","AO04","AO04","AO04","AO04","AO03","",""
"179","2023-10-04 12:23:43","3","gl","1523417881","2023-10-04 12:22:20","2023-10-04 12:23:43","AO01","AO05","AO02","AO03","AO02","AO01","AO03","AO05","AO04","AO01","AO03","AO01","AO04","AO03","AO03","AO01","AO01","AO03","",""
"180","2023-10-04 12:50:16","3","gl","913340628","2023-10-04 12:48:27","2023-10-04 12:50:16","AO02","AO05","AO03","AO02","AO02","AO01","AO01","AO02","AO04","AO01","AO04","AO01","AO03","AO03","AO03","AO03","AO01","AO03","",""
"181","2023-10-04 12:51:03","3","gl","1854062870","2023-10-04 12:49:26","2023-10-04 12:51:03","AO02","AO05","AO01","AO01","AO02","AO01","AO02","AO03","AO01","AO01","AO04","AO01","AO03","AO01","AO01","AO01","AO03","AO03","",""
"182","2023-10-04 12:59:31","3","gl","608440774","2023-10-04 12:57:22","2023-10-04 12:59:31","AO02","AO05","AO02","AO01","AO02","AO01","AO01","AO02","AO04","AO04","AO03","AO01","AO03","AO01","AO04","AO01","AO03","AO03","",""
"183","2023-10-04 12:59:27","3","gl","1078572597","2023-10-04 12:57:30","2023-10-04 12:59:27","AO02","AO05","AO02","AO02","AO02","AO01","AO02","AO05","AO01","AO04","AO04","AO03","AO03","AO04","AO04","AO03","AO04","AO03","",""
"184","2023-10-04 13:15:20","3","gl","1228335302","2023-10-04 13:14:03","2023-10-04 13:15:20","AO02","AO05","AO02","AO03","AO02","AO02","AO02","AO04","AO01","AO04","AO03","AO01","AO03","AO04","AO03","AO04","AO03","AO03","",""
"185","2023-10-04 13:16:11","3","gl","1499835481","2023-10-04 13:14:33","2023-10-04 13:16:11","AO02","AO05","AO02","AO01","AO02","AO03","AO02","AO05","AO01","AO01","AO01","AO03","AO03","AO01","AO03","AO03","AO01","AO03","",""
"186","2023-10-04 13:21:46","3","gl","1851814339","2023-10-04 13:20:41","2023-10-04 13:21:46","AO01","AO05","AO02","AO01","AO02","AO01","AO03","AO02","AO04","AO04","AO04","AO04","AO03","AO04","AO04","AO04","AO04","AO04","",""
"188","2023-10-06 10:11:47","3","gl","847176757","2023-10-06 10:10:28","2023-10-06 10:11:47","AO02","AO05","AO02","AO01","AO02","AO01","AO01","AO02","AO01","AO01","AO03","AO03","AO03","AO03","AO03","AO01","AO03","AO03","",""
"189","2023-10-06 10:14:40","3","gl","1416943881","2023-10-06 10:13:40","2023-10-06 10:14:40","AO02","AO05","AO01","AO02","AO02","AO01","AO01","AO03","AO01","AO01","AO01","AO01","AO03","AO01","AO03","AO01","AO03","AO03","",""
"190","2023-10-06 10:17:57","3","es","1585494678","2023-10-06 10:16:16","2023-10-06 10:17:57","AO02","AO05","AO02","AO01","AO02","AO01","AO01","AO02","AO04","AO04","AO04","AO01","AO04","AO04","AO04","AO04","AO01","AO04","",""
"191","2023-10-06 10:17:57","3","gl","59236890","2023-10-06 10:16:16","2023-10-06 10:17:57","AO02","AO05","AO03","AO03","AO03","AO03","AO01","AO05","AO01","AO01","AO03","AO04","AO03","AO04","AO01","AO03","AO01","AO03","",""
"192","2023-10-06 10:25:31","3","es","715410618","2023-10-06 10:20:32","2023-10-06 10:25:31","AO03","AO05","AO02","AO01","AO02","AO02","AO02","AO05","AO01","AO01","AO01","AO01","AO03","AO01","AO01","AO01","AO01","AO03","OBS, OpenShot Video, VS CODE, GanttProject, Insomnia, Git",""
"194","2023-10-06 10:26:37","3","gl","1943547895","2023-10-06 10:24:58","2023-10-06 10:26:37","AO01","AO05","AO02","AO02","AO02","AO03","AO02","AO01","AO01","AO01","AO01","AO01","AO03","AO04","AO04","AO04","AO04","AO01","Blender",""
"195","2023-10-06 10:26:11","3","gl","60459015","2023-10-06 10:25:02","2023-10-06 10:26:11","AO01","AO05","AO02","AO03","AO03","AO03","AO01","AO02","AO04","AO04","AO04","AO01","AO03","AO03","AO03","AO03","AO03","AO03","",""
"196","2023-10-06 10:28:18","3","gl","2079988514","2023-10-06 10:26:01","2023-10-06 10:28:18","AO02","AO04","AO03","AO01","AO02","AO03","AO02","AO02","AO01","AO01","AO03","AO03","AO03","AO01","AO03","AO03","AO03","AO03","",""
"197","2023-10-06 10:28:09","3","gl","895214657","2023-10-06 10:26:24","2023-10-06 10:28:09","AO02","AO05","AO03","AO01","AO02","AO01","AO01","AO02","AO01","AO01","AO03","AO03","AO03","AO03","AO03","AO03","AO03","AO03","",""
"198","2023-10-06 10:29:39","3","gl","762270001","2023-10-06 10:26:49","2023-10-06 10:29:39","AO01","AO05","AO03","AO03","AO02","AO01","AO01","AO02","AO01","AO04","AO04","AO03","AO03","AO03","AO03","AO01","AO04","AO03","Ninguna ",""
"199","2023-10-06 10:34:06","3","gl","1893197006","2023-10-06 10:31:59","2023-10-06 10:34:06","AO01","AO05","AO02","AO01","AO02","AO01","AO02","AO05","AO01","AO01","AO01","AO04","AO03","AO01","AO01","AO01","AO01","AO04","non se me vén ningunha máis agora mesmo",""
"200","2023-10-06 10:34:30","3","gl","4758131","2023-10-06 10:32:10","2023-10-06 10:34:30","AO01","AO05","AO03","AO03","AO02","AO03","AO01","AO04","AO01","AO01","AO03","AO03","AO03","AO01","AO03","AO01","AO03","AO03","",""
"201","2023-10-06 10:34:32","3","gl","1751493558","2023-10-06 10:32:18","2023-10-06 10:34:32","AO01","AO05","AO02","AO01","AO02","AO01","AO01","AO03","AO01","AO01","AO04","AO04","AO04","AO01","AO01","AO04","AO04","AO04","",""
"202","2023-10-06 10:34:28","3","gl","342427971","2023-10-06 10:33:05","2023-10-06 10:34:28","AO01","AO05","AO02","AO02","AO02","AO02","AO01","AO02","AO04","AO04","AO03","AO03","AO03","AO03","AO03","AO03","AO04","AO03","",""
"203","2023-10-06 10:36:14","3","gl","1122343105","2023-10-06 10:34:50","2023-10-06 10:36:14","AO02","AO05","AO02","AO01","AO02","AO01","AO01","AO02","AO01","AO01","AO03","AO01","AO03","AO01","AO03","AO03","AO03","AO03","",""
"204","2023-10-06 10:39:55","3","gl","1592464472","2023-10-06 10:34:55","2023-10-06 10:39:55","AO01","AO05","AO02","AO01","AO02","AO01","AO02","AO02","AO01","AO01","AO03","AO03","AO03","AO03","AO04","AO03","AO03","AO03","",""
"206","2023-10-06 10:50:22","3","gl","873609426","2023-10-06 10:49:21","2023-10-06 10:50:22","AO02","AO05","AO02","AO01","AO02","AO01","AO01","AO05","AO01","AO01","AO04","AO01","AO03","AO01","AO01","AO04","AO01","AO04","",""
"207","2023-10-06 10:51:40","3","es","1582683533","2023-10-06 10:50:03","2023-10-06 10:51:40","AO01","AO05","AO02","AO01","AO02","AO03","AO01","AO05","AO01","AO04","AO04","AO04","AO04","AO01","AO03","AO04","AO01","AO04","",""
"208","2023-10-06 10:57:09","3","gl","85731751","2023-10-06 10:55:44","2023-10-06 10:57:08","AO01","AO05","AO02","AO03","AO02","AO01","AO01","AO01","AO01","AO01","AO04","AO01","AO03","AO03","AO04","AO03","AO04","AO03","",""
"209","2023-10-06 11:01:51","3","gl","1298339397","2023-10-06 10:59:01","2023-10-06 11:01:51","AO01","AO05","AO03","AO02","AO02","AO01","AO01","AO02","AO01","AO01","AO03","AO03","AO04","AO04","AO03","AO04","AO04","AO03","",""
"210","2023-10-06 11:02:09","3","gl","1524470340","2023-10-06 10:59:06","2023-10-06 11:02:09","AO01","AO03","AO02","AO03","AO02","AO01","AO03","AO02","AO04","AO04","AO04","AO04","AO03","AO01","AO04","AO04","AO01","AO03","",""
"211","2023-10-06 11:01:58","3","gl","1766768167","2023-10-06 10:59:55","2023-10-06 11:01:58","AO01","AO05","AO03","AO03","AO02","AO03","AO01","AO02","AO01","AO04","AO03","AO03","AO03","AO04","AO04","AO01","AO04","AO03","",""
"212","2023-10-06 11:07:46","3","gl","348881531","2023-10-06 11:05:40","2023-10-06 11:07:46","AO02","AO05","AO02","AO01","AO02","AO01","AO01","AO01","AO01","AO01","AO03","AO01","AO03","AO03","AO01","AO04","AO01","AO03","","Bing chilling "
"213","2023-10-06 11:10:03","3","gl","1830290923","2023-10-06 11:06:12","2023-10-06 11:10:03","AO02","AO05","AO02","AO01","AO02","AO03","AO01","AO02","AO01","AO01","AO04","AO03","AO03","AO01","AO01","AO04","AO04","AO03","",""
"214","2023-10-06 11:09:56","3","gl","1596033272","2023-10-06 11:07:59","2023-10-06 11:09:56","AO02","AO05","AO02","AO01","AO02","AO01","AO03","AO02","AO01","AO04","AO03","AO01","AO03","AO01","AO01","AO04","AO01","AO03","",""
"215","2023-10-06 11:29:53","3","gl","2039227280","2023-10-06 11:28:51","2023-10-06 11:29:53","AO02","AO05","AO03","AO02","AO02","AO02","AO02","AO01","AO01","AO01","AO01","AO01","AO03","AO04","AO03","AO03","AO04","AO03","",""
"217","2023-10-06 11:30:48","3","gl","890106429","2023-10-06 11:29:07","2023-10-06 11:30:48","AO02","AO05","AO02","AO02","AO02","AO01","AO01","AO02","AO01","AO01","AO03","AO04","AO03","AO03","AO03","AO01","AO04","AO03","",""
"218","2023-10-06 11:31:19","3","gl","125834289","2023-10-06 11:29:23","2023-10-06 11:31:19","AO02","AO05","AO03","AO03","AO03","AO03","AO01","AO02","AO01","AO04","AO03","AO04","AO03","AO01","AO01","AO03","AO03","AO03","",""
"219","2023-10-06 11:36:28","3","gl","1171725078","2023-10-06 11:34:58","2023-10-06 11:36:28","AO02","AO05","AO02","AO01","AO02","AO03","AO01","AO04","AO04","AO01","AO04","AO01","AO03","AO04","AO03","AO01","AO01","AO04","",""
"220","2023-10-06 11:36:11","3","es","1267274524","2023-10-06 11:35:04","2023-10-06 11:36:11","AO02","AO05","AO01","AO01","AO02","AO02","AO01","AO02","AO04","AO01","AO04","AO04","AO03","AO04","AO04","AO01","AO04","AO04","",""
"221","2023-10-06 11:37:37","3","gl","599776826","2023-10-06 11:36:06","2023-10-06 11:37:37","AO02","AO05","AO01","AO01","AO02","AO01","AO01","AO05","AO01","AO01","AO01","AO04","AO03","AO01","AO01","AO04","AO01","AO03","Octave
",""
"222","2023-10-06 11:38:35","3","gl","849270243","2023-10-06 11:36:47","2023-10-06 11:38:35","AO02","AO05","AO02","AO01","AO02","AO03","AO01","AO05","AO04","AO01","AO04","AO01","AO03","AO01","AO03","AO01","AO01","AO03","",""
"223","2023-10-06 11:58:06","3","gl","742284085","2023-10-06 11:55:28","2023-10-06 11:58:06","AO02","AO05","AO01","AO02","AO02","AO01","AO02","AO01","AO01","AO01","AO01","AO04","AO03","AO01","AO03","AO03","AO01","AO03","Graphor",""
"224","2023-10-06 12:00:26","3","gl","7223345","2023-10-06 11:56:32","2023-10-06 12:00:26","AO02","AO05","AO01","AO01","AO02","AO01","AO03","AO05","AO01","AO04","AO01","AO01","AO03","AO04","AO04","AO01","AO01","AO03","Manjaro Linux, godot, blender","Me gusta ver que hay iniciativas por promover el uso de software libre"
"225","2023-10-06 12:30:10","3","gl","716233196","2023-10-06 12:28:12","2023-10-06 12:30:10","AO01","AO05","AO02","AO02","AO02","AO03","AO01","AO01","AO04","AO01","AO03","AO04","AO03","AO04","AO03","AO03","AO03","AO03","Microsoft Edge",""
"226","2023-10-06 12:30:18","3","gl","1540117363","2023-10-06 12:28:15","2023-10-06 12:30:18","AO01","AO05","AO03","AO03","AO02","AO01","AO01","AO02","AO01","AO01","AO04","AO04","AO03","AO01","AO04","AO04","AO03","AO03","no se",""
"227","2023-10-06 12:31:18","3","gl","458508058","2023-10-06 12:29:45","2023-10-06 12:31:18","AO01","AO05","AO01","AO01","AO02","AO01","AO02","AO02","AO01","AO01","AO04","AO03","AO03","AO01","AO01","AO03","AO03","AO03","",""
"228","2023-10-06 12:31:32","3","gl","508252255","2023-10-06 12:29:55","2023-10-06 12:31:32","AO02","AO05","AO02","AO01","AO02","AO02","AO01","AO05","AO01","AO04","AO03","AO03","AO03","AO03","AO03","AO03","AO03","AO03","",""
"229","2023-10-06 12:32:04","3","gl","1930569574","2023-10-06 12:31:12","2023-10-06 12:32:04","AO02","AO05","AO01","AO01","AO01","AO02","AO02","AO05","AO01","AO04","AO03","AO04","AO03","AO01","AO04","AO01","AO03","AO04","Clion","Ola
"
"230","2023-10-06 12:33:43","3","gl","1391999463","2023-10-06 12:31:25","2023-10-06 12:33:43","AO02","AO05","AO02","AO01","AO02","AO01","AO01","AO02","AO04","AO04","AO04","AO01","AO03","AO04","AO04","AO01","AO01","AO04","",""
"231","2023-10-06 12:33:40","3","gl","2128319420","2023-10-06 12:31:45","2023-10-06 12:33:40","AO02","AO05","AO02","AO01","AO02","AO01","AO02","AO01","AO01","AO01","AO01","AO01","AO03","AO01","AO04","AO01","AO01","AO04","Hai demasiadas",""
"232","2023-10-06 12:33:28","3","gl","1970740156","2023-10-06 12:31:51","2023-10-06 12:33:28","AO02","AO05","AO02","AO02","AO02","AO02","AO03","AO02","AO04","AO04","AO04","AO04","AO04","AO04","AO04","AO01","AO04","AO04","",""
"233","2023-10-06 13:01:21","3","gl","2018815868","2023-10-06 12:59:29","2023-10-06 13:01:21","AO02","AO05","AO02","AO01","AO02","AO01","AO03","AO01","AO01","AO01","AO01","AO01","AO03","AO01","AO01","AO01","AO04","AO04","",""
"234","2023-10-06 13:36:34","3","gl","1906920891","2023-10-06 13:34:01","2023-10-06 13:36:34","AO02","AO05","AO01","AO02","AO02","AO01","AO01","AO02","AO01","AO01","AO01","AO01","AO04","AO01","AO04","AO01","AO01","AO03","",""
"235","2023-10-10 09:54:20","3","gl","1380294552","2023-10-10 09:53:11","2023-10-10 09:54:20","AO01","AO02","AO03","AO03","AO03","AO03","AO03","AO04","AO01","AO04","AO03","AO03","AO03","AO01","AO04","AO03","AO03","AO03","Documentos google ","No"
"236","2023-10-10 09:54:10","3","gl","1829058207","2023-10-10 09:53:12","2023-10-10 09:54:10","AO01","AO02","AO03","AO03","AO03","AO03","AO01","AO02","AO04","AO04","AO04","AO01","AO03","AO03","AO03","AO03","AO03","AO03","",""
"237","2023-10-10 09:56:56","3","gl","97911319","2023-10-10 09:56:01","2023-10-10 09:56:56","AO01","AO02","AO03","AO03","AO03","AO03","AO01","AO04","AO04","AO03","AO03","AO03","AO03","AO03","AO03","AO03","AO03","AO03","",""
"238","2023-10-10 09:56:36","3","gl","1309801792","2023-10-10 09:56:02","2023-10-10 09:56:36","AO01","AO01","AO01","AO02","AO02","AO02","AO02","AO05","AO01","AO01","AO01","AO01","AO04","AO04","AO04","AO01","AO03","AO03","Word",""
"239","2023-10-10 09:57:30","3","gl","1786277300","2023-10-10 09:56:07","2023-10-10 09:57:30","AO01","AO02","AO03","AO03","AO03","AO03","AO01","AO02","AO01","AO01","AO03","AO04","AO03","AO01","AO01","AO04","AO03","AO03","",""
"240","2023-10-10 09:57:12","3","gl","278801102","2023-10-10 09:56:07","2023-10-10 09:57:12","AO01","AO02","AO02","AO01","AO02","AO01","AO01","AO02","AO01","AO01","AO04","AO04","AO03","AO01","AO01","AO01","AO04","AO03","",""
"241","2023-10-10 09:57:10","3","gl","1389617011","2023-10-10 09:56:09","2023-10-10 09:57:10","AO01","AO02","AO03","AO03","AO03","AO03","AO03","AO04","AO03","AO04","AO03","AO01","AO03","AO03","AO03","AO03","AO03","AO03","",""
"242","2023-10-10 09:59:57","3","gl","1983516649","2023-10-10 09:59:24","2023-10-10 09:59:57","AO01","AO01","AO01","AO01","AO02","AO01","AO01","AO01","AO01","AO04","AO04","AO04","AO01","AO01","AO01","AO01","AO01","AO01","",""
"243","2023-10-10 10:07:46","3","gl","267755136","2023-10-10 10:05:54","2023-10-10 10:07:46","AO01","AO02","AO03","AO01","AO02","AO02","AO02","AO03","AO04","AO04","AO04","AO04","AO04","AO04","AO03","AO03","AO03","AO03","",""
"244","2023-10-10 10:23:57","3","gl","571473076","2023-10-10 10:23:13","2023-10-10 10:23:57","AO02","AO02","AO03","AO03","AO03","AO03","AO01","AO02","AO04","AO04","AO03","AO03","AO03","AO03","AO03","AO03","AO03","AO03","",""
"245","2023-10-10 10:24:18","3","gl","1362917185","2023-10-10 10:23:17","2023-10-10 10:24:18","AO02","AO02","AO03","AO03","AO03","AO01","AO03","AO02","AO04","AO04","AO04","AO04","AO03","AO03","AO03","AO03","AO03","AO03","",""
"246","2023-10-10 10:26:17","3","gl","678694101","2023-10-10 10:24:31","2023-10-10 10:26:17","AO01","AO02","AO02","AO01","AO02","AO01","AO01","AO02","AO01","AO04","AO03","AO03","AO03","AO01","AO01","AO01","AO03","AO03","",""
"247","2023-10-10 11:13:14","3","gl","1589093981","2023-10-10 11:11:49","2023-10-10 11:13:14","AO02","AO02","AO02","AO03","AO02","AO03","AO01","AO02","AO01","AO01","AO03","AO04","AO03","AO01","AO03","AO03","AO03","AO03","",""
"248","2023-10-10 11:13:06","3","gl","1587269354","2023-10-10 11:11:49","2023-10-10 11:13:06","AO02","AO02","AO02","AO03","AO02","AO01","AO01","AO02","AO01","AO04","AO03","AO01","AO03","AO01","AO03","AO03","AO03","AO03","Gretl",""
"249","2023-10-10 11:13:30","3","gl","441771972","2023-10-10 11:11:50","2023-10-10 11:13:30","AO02","AO02","AO02","AO02","AO02","AO01","AO01","AO04","AO01","AO01","AO03","AO01","AO03","AO03","AO03","AO04","AO03","AO03","",""
"250","2023-10-10 11:23:45","3","gl","914387939","2023-10-10 11:22:25","2023-10-10 11:23:45","AO02","AO02","AO03","AO03","AO02","AO01","AO01","AO02","AO03","AO01","AO03","AO01","AO03","AO03","AO03","AO03","AO03","AO03","No sé",""
"251","2023-10-10 11:23:40","3","gl","2145975979","2023-10-10 11:23:15","2023-10-10 11:23:40","AO02","AO02","AO01","AO01","AO01","AO01","AO02","AO03","AO04","AO01","AO01","AO04","AO04","AO04","AO01","AO03","AO04","AO04","",""
"252","2023-10-10 11:28:02","3","gl","527634580","2023-10-10 11:26:57","2023-10-10 11:28:02","AO02","AO02","AO03","AO03","AO03","AO03","AO01","AO02","AO03","AO03","AO03","AO03","AO03","AO03","AO03","AO04","AO03","AO03","",""
"253","2023-10-10 11:28:20","3","gl","1783004670","2023-10-10 11:27:12","2023-10-10 11:28:20","AO02","AO02","AO03","AO02","AO03","AO03","AO01","AO02","AO04","AO01","AO04","AO04","AO03","AO03","AO03","AO03","AO03","AO03","",""
"254","2023-10-10 11:28:42","3","gl","1658421872","2023-10-10 11:27:22","2023-10-10 11:28:42","AO02","AO02","AO03","AO03","AO02","AO03","AO01","AO02","AO04","AO01","AO03","AO03","AO03","AO03","AO03","AO03","AO03","AO03","",""
"255","2023-10-10 11:31:28","3","gl","1956209109","2023-10-10 11:30:01","2023-10-10 11:31:28","AO03","AO02","AO02","AO02","AO02","AO01","AO01","AO02","AO01","AO01","AO01","AO01","AO03","AO04","AO03","AO01","AO01","AO03","",""
"256","2023-10-10 11:31:31","3","gl","895653090","2023-10-10 11:30:05","2023-10-10 11:31:31","AO03","AO02","AO02","AO02","AO02","AO03","AO01","AO02","AO04","AO01","AO03","AO03","AO03","AO03","AO01","AO01","AO04","AO03","",""
"257","2023-10-10 11:34:12","3","gl","180025540","2023-10-10 11:32:10","2023-10-10 11:34:12","AO01","AO02","AO03","AO02","AO03","AO02","AO01","AO02","AO01","AO01","AO01","AO01","AO01","AO03","AO03","AO01","AO03","AO03","","Vou baixar polo chupa chups "
"258","2023-10-10 11:34:32","3","gl","1390140226","2023-10-10 11:33:03","2023-10-10 11:34:32","AO02","AO02","AO01","AO01","AO02","AO01","AO02","AO04","AO01","AO04","AO03","AO03","AO03","AO01","AO03","AO01","AO03","AO03","",""
"259","2023-10-10 11:33:53","3","gl","749155738","2023-10-10 11:33:20","2023-10-10 11:33:53","AO01","AO01","AO02","AO01","AO02","AO01","AO02","AO02","AO01","AO01","AO04","AO04","AO04","AO04","AO04","AO04","AO03","AO03","",""
"260","2023-10-10 11:35:44","3","gl","1760587555","2023-10-10 11:33:59","2023-10-10 11:35:44","AO03","AO02","AO03","AO03","AO03","AO03","AO01","AO02","AO03","AO04","AO03","AO03","AO03","AO03","AO03","AO03","AO04","AO03","",""
"261","2023-10-10 11:35:18","3","gl","1267910800","2023-10-10 11:34:11","2023-10-10 11:35:18","AO03","AO02","AO02","AO02","AO02","AO03","AO01","AO02","AO01","AO01","AO03","AO03","AO03","AO04","AO04","AO04","AO03","AO03","",""
"262","2023-10-10 11:35:30","3","gl","1312114125","2023-10-10 11:34:21","2023-10-10 11:35:30","AO01","AO03","AO03","AO03","AO03","AO03","AO01","AO04","AO03","AO03","AO03","AO03","AO03","AO03","AO03","AO03","AO03","AO03","",""
"263","2023-10-10 11:35:42","3","gl","119997695","2023-10-10 11:34:40","2023-10-10 11:35:42","AO03","AO02","AO02","AO01","AO02","AO03","AO01","AO02","AO04","AO01","AO03","AO03","AO03","AO03","AO03","AO03","AO03","AO03","",""
"264","2023-10-10 12:08:09","3","gl","135299538","2023-10-10 12:06:20","2023-10-10 12:08:09","AO01","AO02","AO03","AO03","AO02","AO02","AO01","AO03","AO04","AO04","AO03","AO03","AO03","AO03","AO03","AO01","AO03","AO03","",""
"265","2023-10-10 12:14:53","3","gl","1954772534","2023-10-10 12:12:18","2023-10-10 12:14:53","AO02","AO02","AO01","AO01","AO02","AO01","AO02","AO02","AO01","AO04","AO04","AO04","AO04","AO04","AO04","AO01","AO04","AO04","",""
"266","2023-10-10 12:54:27","3","gl","1912906258","2023-10-10 12:51:30","2023-10-10 12:54:27","AO02","AO03","AO03","AO03","AO03","AO03","AO01","AO02","AO03","AO04","AO03","AO03","AO03","AO03","AO03","AO03","AO03","AO03","",""
"267","2023-10-10 13:01:02","3","gl","122746883","2023-10-10 12:59:19","2023-10-10 13:01:02","AO02","AO02","AO02","AO02","AO02","AO03","AO01","AO02","AO01","AO01","AO01","AO03","AO03","AO03","AO03","AO04","AO04","AO03","",""
"268","2023-10-10 13:04:10","3","gl","104837169","2023-10-10 13:02:24","2023-10-10 13:04:10","AO02","AO02","AO02","AO02","AO03","AO01","AO01","AO03","AO01","AO01","AO03","AO03","AO03","AO03","AO03","AO04","AO03","AO03","",""
"269","2023-10-10 13:04:06","3","es","479548450","2023-10-10 13:02:31","2023-10-10 13:04:06","AO02","AO02","AO02","AO01","AO02","AO01","AO01","AO04","AO04","AO03","AO03","AO03","AO03","AO03","AO03","AO03","AO03","AO03","Safari, ",""
"270","2023-10-10 13:05:09","3","gl","1931932831","2023-10-10 13:02:42","2023-10-10 13:05:09","AO02","AO02","AO02","AO01","AO03","AO01","AO01","AO02","AO01","AO01","AO03","AO04","AO03","AO03","AO04","AO03","AO03","AO03","Linux",""
"271","2023-10-10 13:21:52","3","gl","41743404","2023-10-10 13:20:24","2023-10-10 13:21:52","AO01","AO02","AO02","AO02","AO02","AO01","AO01","AO04","AO01","AO01","AO03","AO03","AO03","AO03","AO03","AO03","AO03","AO03","",""
"272","2023-10-10 13:21:41","3","gl","1440144922","2023-10-10 13:20:35","2023-10-10 13:21:41","AO02","AO02","AO03","AO02","AO02","AO02","AO01","AO02","AO01","AO01","AO03","AO03","AO01","AO03","AO03","AO03","AO03","AO03","",""
"273","2023-10-11 10:19:22","3","gl","1118158511","2023-10-11 10:17:59","2023-10-11 10:19:22","AO01","AO03","AO03","AO01","AO02","AO02","AO03","AO05","AO01","AO01","AO04","AO04","AO04","AO04","AO04","AO04","AO04","AO04","",""
"274","2023-10-11 10:29:54","3","gl","1777332395","2023-10-11 10:28:55","2023-10-11 10:29:54","AO01","AO02","AO03","AO03","AO03","AO03","AO02","AO02","AO01","AO01","AO03","AO03","AO03","AO03","AO03","AO03","AO03","AO03","",""
"275","2023-10-11 10:30:34","3","gl","1721399332","2023-10-11 10:28:56","2023-10-11 10:30:34","AO01","AO02","AO03","AO01","AO03","AO01","AO01","AO02","AO04","AO01","AO03","AO01","AO03","AO04","AO03","AO04","AO03","AO03","",""
"276","2023-10-11 10:30:25","3","gl","911752668","2023-10-11 10:29:02","2023-10-11 10:30:25","AO01","AO02","AO03","AO02","AO02","AO03","AO02","AO02","AO01","AO04","AO03","AO03","AO03","AO03","AO03","AO03","AO03","AO03","",""
"278","2023-10-11 10:41:58","3","gl","1713229643","2023-10-11 10:40:23","2023-10-11 10:41:58","AO01","AO02","AO03","AO01","AO02","AO03","AO02","AO02","AO01","AO01","AO03","AO03","AO03","AO04","AO03","AO03","AO03","AO03","",""
"279","2023-10-11 10:46:04","3","gl","1216152758","2023-10-11 10:44:33","2023-10-11 10:46:04","AO03","AO04","AO02","AO03","AO03","AO03","AO01","AO02","AO01","AO01","AO03","AO03","AO03","AO03","AO03","AO03","AO03","AO03","",""
"280","2023-10-11 10:46:36","3","gl","1201938086","2023-10-11 10:44:42","2023-10-11 10:46:36","AO03","AO04","AO02","AO03","AO02","AO01","AO01","AO05","AO04","AO01","AO04","AO03","AO03","AO04","AO03","AO04","AO03","AO03","Brave (navegador)",""
"282","2023-10-11 11:38:05","3","gl","941304625","2023-10-11 11:36:32","2023-10-11 11:38:05","AO02","AO04","AO02","AO02","AO02","AO01","AO01","AO02","AO01","AO04","AO04","AO01","AO03","AO03","AO03","AO03","AO03","AO03","",""
"283","2023-10-11 11:39:04","3","gl","371475664","2023-10-11 11:37:37","2023-10-11 11:39:04","AO03","AO02","AO02","AO01","AO02","AO03","AO01","AO02","AO04","AO04","AO03","AO04","AO03","AO03","AO03","AO04","AO03","AO03","",""
"284","2023-10-11 11:44:11","3","gl","905990892","2023-10-11 11:42:34","2023-10-11 11:44:11","AO02","AO04","AO02","AO01","AO02","AO02","AO01","AO05","AO01","AO04","AO04","AO01","AO03","AO04","AO04","AO01","AO01","AO04","",""
"285","2023-10-11 11:49:50","3","gl","506539039","2023-10-11 11:48:12","2023-10-11 11:49:50","AO03","AO02","AO01","AO02","AO01","AO03","AO01","AO02","AO01","AO01","AO04","AO04","AO03","AO03","AO03","AO04","AO04","AO03","",""
"286","2023-10-11 11:56:35","3","gl","1665354737","2023-10-11 11:54:10","2023-10-11 11:56:35","AO03","AO04","AO03","AO03","AO03","AO03","AO02","AO02","AO01","AO01","AO04","AO04","AO03","AO03","AO03","AO04","AO03","AO03","",""
"287","2023-10-11 11:57:08","3","gl","1312619366","2023-10-11 11:55:35","2023-10-11 11:57:08","AO02","AO04","AO03","AO03","AO02","AO03","AO01","AO02","AO01","AO04","AO04","AO04","AO03","AO01","AO03","AO03","AO03","AO03","FLV ",""
"288","2023-10-11 11:56:33","3","gl","1552965383","2023-10-11 11:55:35","2023-10-11 11:56:33","AO02","AO04","AO03","AO01","AO03","AO03","AO01","AO02","AO01","AO04","AO03","AO03","AO03","AO03","AO03","AO01","AO03","AO03","",""
"289","2023-10-11 11:56:25","3","gl","1123795520","2023-10-11 11:55:39","2023-10-11 11:56:25","AO02","AO04","AO03","AO03","AO02","AO01","AO01","AO02","AO01","AO01","AO03","AO03","AO03","AO03","AO03","AO03","AO03","AO03","",""
"291","2023-10-11 11:58:21","3","gl","423007346","2023-10-11 11:57:06","2023-10-11 11:58:21","AO01","AO02","AO02","AO03","AO03","AO03","AO02","AO01","AO03","AO01","AO03","AO03","AO03","AO03","AO03","AO03","AO03","AO03","",""
"292","2023-10-11 11:58:25","3","gl","1383447299","2023-10-11 11:57:08","2023-10-11 11:58:25","AO01","AO02","AO03","AO03","AO02","AO03","AO01","AO02","AO03","AO01","AO03","AO03","AO03","AO03","AO03","AO03","AO03","AO03","",""
"293","2023-10-11 11:58:23","3","gl","1742310204","2023-10-11 11:57:10","2023-10-11 11:58:23","AO01","AO02","AO02","AO01","AO02","AO03","AO02","AO02","AO01","AO04","AO03","AO03","AO03","AO01","AO03","AO03","AO03","AO03","No hay mas",""
"295","2023-10-11 12:03:39","3","gl","90280707","2023-10-11 12:02:17","2023-10-11 12:03:39","AO02","AO02","AO03","AO03","AO03","AO03","AO01","AO02","AO03","AO01","AO03","AO03","AO03","AO03","AO03","AO03","AO03","AO03","",""
"296","2023-10-11 12:03:34","3","gl","1804803488","2023-10-11 12:02:41","2023-10-11 12:03:34","AO02","AO02","AO02","AO02","AO01","AO02","AO02","AO02","AO01","AO01","AO04","AO04","AO03","AO03","AO03","AO03","AO03","AO03","",""
"297","2023-10-11 12:04:12","3","gl","2113156012","2023-10-11 12:03:06","2023-10-11 12:04:12","AO01","AO02","AO02","AO03","AO03","AO03","AO01","AO04","AO01","AO01","AO03","AO03","AO03","AO03","AO03","AO03","AO04","AO03","",""
"298","2023-10-11 12:34:40","3","gl","45039053","2023-10-11 12:32:51","2023-10-11 12:34:40","AO02","AO02","AO01","AO01","AO02","AO02","AO01","AO02","AO01","AO01","AO03","AO01","AO03","AO03","AO03","AO03","AO01","AO03","",""
"299","2023-10-11 12:34:30","3","gl","1036630469","2023-10-11 12:33:26","2023-10-11 12:34:30","AO02","AO04","AO02","AO02","AO02","AO01","AO01","AO02","AO01","AO01","AO03","AO03","AO03","AO03","AO03","AO03","AO03","AO03","",""
"300","2023-10-11 12:36:09","3","gl","1751588994","2023-10-11 12:34:29","2023-10-11 12:36:09","AO02","AO04","AO02","AO02","AO02","AO02","AO01","AO05","AO01","AO01","AO01","AO01","AO03","AO04","AO04","AO04","AO01","AO04","Brave",""
"301","2023-10-11 12:35:47","3","gl","856043427","2023-10-11 12:34:45","2023-10-11 12:35:47","AO02","AO04","AO02","AO03","AO03","AO03","AO01","AO02","AO01","AO01","AO04","AO01","AO03","AO01","AO03","AO01","AO03","AO03","",""
"302","2023-10-11 13:04:26","3","gl","954514707","2023-10-11 13:03:02","2023-10-11 13:04:26","AO01","AO04","AO03","AO03","AO03","AO03","AO01","AO04","AO04","AO04","AO03","AO03","AO03","AO03","AO03","AO03","AO03","AO03","",""
"303","2023-10-11 13:04:35","3","gl","1558890773","2023-10-11 13:03:07","2023-10-11 13:04:35","AO01","AO04","AO03","AO03","AO03","AO03","AO01","AO02","AO04","AO04","AO03","AO03","AO03","AO03","AO03","AO03","AO03","AO03","",""
"304","2023-10-11 13:04:46","3","gl","1744977128","2023-10-11 13:03:08","2023-10-11 13:04:46","AO01","AO04","AO02","AO03","AO03","AO03","AO03","AO04","AO04","AO01","AO03","AO03","AO03","AO03","AO03","AO03","AO03","AO03","",""
"305","2023-10-11 13:04:47","3","gl","242556386","2023-10-11 13:03:22","2023-10-11 13:04:47","AO01","AO04","AO02","AO03","AO03","AO01","AO01","AO02","AO01","AO04","AO03","AO03","AO03","AO01","AO03","AO01","AO03","AO03","",""
"306","2023-10-11 13:21:25","3","gl","2124780938","2023-10-11 13:19:02","2023-10-11 13:21:25","AO03","AO04","AO02","AO03","AO02","AO03","AO01","AO02","AO03","AO01","AO04","AO03","AO03","AO04","AO03","AO03","AO03","AO03","Linux aínda que non a utilizo",""
"308","2023-10-13 15:34:25","3","gl","197564995","2023-10-13 15:32:26","2023-10-13 15:34:25","AO03","AO05","AO02","AO01","AO02","AO01","AO01","AO02","AO01","AO01","AO04","AO01","AO04","AO01","AO03","AO03","AO01","AO03","",""
"309","2023-10-16 11:16:28","3","gl","1992002723","2023-10-16 11:13:58","2023-10-16 11:16:28","AO03","AO01","AO02","AO01","AO03","AO01","AO01","AO02","AO01","AO04","AO03","AO01","AO03","AO03","AO03","AO01","AO03","AO03","",""
"310","2023-10-16 11:20:31","3","gl","33271193","2023-10-16 11:16:22","2023-10-16 11:20:31","AO03","AO01","AO02","AO01","AO02","AO01","AO01","AO02","AO01","AO01","AO04","AO01","AO03","AO03","AO03","AO01","AO03","AO03","XBench, OmegaT, LMMS, Blender, Virtaal",""
"311","2023-10-16 11:22:15","3","gl","715024702","2023-10-16 11:17:25","2023-10-16 11:22:15","AO03","AO01","AO02","AO03","AO02","AO01","AO03","AO02","AO01","AO04","AO03","AO01","AO04","AO03","AO03","AO01","AO03","AO03","OmegaT","Gustaríame aprender máis sobre a informática en xeral."
"312","2023-10-16 11:22:20","3","gl","1836815547","2023-10-16 11:20:55","2023-10-16 11:22:20","AO02","AO01","AO02","AO02","AO03","AO01","AO01","AO02","AO01","AO01","AO03","AO04","AO03","AO03","AO03","AO04","AO01","AO03","",""
"313","2023-10-16 11:23:09","3","es","1191425528","2023-10-16 11:21:14","2023-10-16 11:23:09","AO03","AO01","AO02","AO02","AO02","AO01","AO03","AO04","AO01","AO04","AO03","AO03","AO03","AO03","AO03","AO03","AO04","AO03","",""
"314","2023-10-16 12:39:16","3","gl","136412759","2023-10-16 12:36:55","2023-10-16 12:39:16","AO03","AO01","AO02","AO01","AO02","AO01","AO02","AO02","AO01","AO04","AO03","AO01","AO03","AO03","AO03","AO03","AO03","AO03","ecosia",""
"316","2023-10-17 01:19:44","3","gl","658139155","2023-10-16 16:03:10","2023-10-17 01:19:44","AO03","AO01","AO02","AO01","AO02","AO01","AO01","AO02","AO01","AO01","AO03","AO01","AO01","AO03","AO03","AO01","AO04","AO03","",""
"317","2023-10-16 16:05:10","3","gl","175556137","2023-10-16 16:03:55","2023-10-16 16:05:10","AO03","AO01","AO02","AO03","AO02","AO01","AO02","AO02","AO01","AO01","AO03","AO01","AO03","AO03","AO03","AO03","AO03","AO03","",""
"318","2023-10-16 16:06:31","3","gl","1141002702","2023-10-16 16:03:56","2023-10-16 16:06:31","AO02","AO01","AO02","AO01","","AO01","AO01","AO03","AO04","AO01","AO03","AO03","AO03","AO03","AO03","AO03","AO03","AO03","",""
"319","2023-10-16 17:45:04","3","gl","98726810","2023-10-16 16:07:16","2023-10-16 17:45:04","AO03","AO01","AO03","AO02","AO03","AO01","AO01","AO02","AO01","AO01","AO03","AO03","AO03","AO03","AO03","AO03","AO03","AO03","Emule, Adobe Reader, Skype",""
"320","2023-10-16 17:18:23","3","gl","1787642611","2023-10-16 17:16:39","2023-10-16 17:18:23","AO03","AO01","AO02","AO02","AO02","AO01","AO01","AO02","AO01","AO04","AO04","AO03","AO01","AO03","AO03","AO03","AO04","AO03","OmegaT",""
"321","2023-10-16 18:27:09","3","gl","434074285","2023-10-16 18:23:12","2023-10-16 18:27:09","AO03","AO01","AO02","AO01","AO02","AO01","AO02","AO02","AO01","AO01","AO03","AO01","AO03","AO01","AO01","AO01","AO03","AO03","OmegaT",""
"322","2023-10-16 22:16:56","3","gl","1248627969","2023-10-16 21:50:23","2023-10-16 22:16:56","AO03","AO01","AO02","AO02","AO02","AO02","AO01","AO02","AO01","AO04","AO03","AO03","AO03","AO03","AO03","AO03","AO03","AO03","Non coñezo máis aplicacións de software libre.",""
"323","2023-10-17 09:01:28","3","es","1626872028","2023-10-17 08:56:37","2023-10-17 09:01:28","AO03","AO01","AO02","AO01","AO02","AO01","AO03","AO02","AO01","AO01","AO04","AO01","AO03","AO04","AO03","AO03","AO03","AO03","",""
"324","2023-10-17 09:46:13","3","gl","1603337945","2023-10-17 09:44:23","2023-10-17 09:46:13","AO03","AO01","AO02","AO01","AO03","AO01","AO01","AO02","AO04","AO04","AO03","AO03","AO03","AO03","AO03","AO03","AO03","AO03","",""
"325","2023-10-17 10:39:37","3","gl","811268379","2023-10-17 10:36:58","2023-10-17 10:39:37","AO03","AO01","AO02","AO02","AO02","AO03","AO01","AO01","AO01","AO01","AO04","AO01","AO03","AO01","AO03","AO01","AO03","AO03","Google Chrome, OmegaT",""
"326","2023-10-17 10:50:13","3","gl","1677244724","2023-10-17 10:48:22","2023-10-17 10:50:13","AO03","AO01","AO02","AO02","AO03","AO01","AO01","AO02","AO01","AO01","AO03","AO04","AO03","AO03","AO04","AO01","AO03","AO03","Scrivener",""
"327","2023-10-18 08:59:12","3","gl","704299184","2023-10-18 08:56:47","2023-10-18 08:59:12","AO03","AO02","AO01","AO02","AO02","AO01","AO01","AO01","AO01","AO01","AO04","AO01","AO03","AO04","AO01","AO04","AO03","AO03","R e QGIS","Se ben estou facendo un master de mestrado, traballo en bioinformática (a efectos de interpretación dos resultados desta enquisa)"
"328","2023-10-18 09:06:32","3","gl","257020115","2023-10-18 09:02:38","2023-10-18 09:06:32","AO03","AO02","AO02","AO01","AO02","AO03","AO01","AO02","AO01","AO01","AO04","AO01","AO03","AO01","AO04","AO01","AO04","AO03","RStudio e VSCode","Non son estudante de grao nin de másterm son doutorando (último ano) e persoal investigador da USC. Pero nas primeiras preguntas non aparecía dita opción."
"329","2023-10-18 09:10:51","3","gl","1500535217","2023-10-18 09:08:35","2023-10-18 09:10:51","AO03","AO04","AO02","AO01","AO02","AO01","AO02","AO02","AO04","AO04","AO01","AO04","AO03","AO01","AO01","AO03","AO03","AO03","",""
"330","2023-10-18 09:13:03","3","es","1913028960","2023-10-18 09:10:47","2023-10-18 09:13:03","AO03","AO03","AO02","AO01","AO02","AO01","AO01","AO02","AO04","AO04","AO04","AO01","AO03","AO04","AO03","AO04","AO04","AO03","Rstudio",""
"331","2023-10-18 09:39:50","3","gl","1604878175","2023-10-18 09:38:23","2023-10-18 09:39:50","AO03","AO03","AO03","AO02","AO03","AO03","AO01","AO02","AO03","AO04","AO04","AO04","AO04","AO04","AO04","AO04","AO04","AO04","",""
"332","2023-10-18 10:08:13","3","gl","524554109","2023-10-18 10:04:00","2023-10-18 10:08:13","AO03","AO01","AO02","AO02","AO02","AO02","AO01","AO02","AO01","AO04","AO03","AO03","AO03","AO03","AO03","AO04","AO03","AO03","",""
"335","2023-10-18 12:31:32","3","gl","883763596","2023-10-18 12:29:24","2023-10-18 12:31:32","AO03","AO01","AO01","AO02","AO02","AO02","AO03","AO02","AO04","AO01","AO01","AO04","AO03","AO01","AO03","AO03","AO03","AO03","OmegaT, Python","Non, grazas"
"336","2023-10-18 13:56:11","3","gl","1327842365","2023-10-18 13:54:31","2023-10-18 13:56:11","AO03","AO01","AO02","AO01","AO02","AO03","AO01","AO02","AO01","AO04","AO04","AO03","AO03","AO03","AO03","AO03","AO03","AO03","",""
"337","2023-10-19 11:45:41","3","gl","1595010187","2023-10-19 11:44:02","2023-10-19 11:45:41","AO03","AO01","AO02","AO02","AO02","AO01","AO01","AO05","AO01","AO04","AO04","AO01","AO03","AO04","AO04","AO04","AO03","AO03","",""
"338","2023-10-19 17:47:28","3","gl","1674741874","2023-10-19 17:45:39","2023-10-19 17:47:28","AO03","AO01","AO02","AO02","AO02","AO01","AO02","AO05","AO01","AO01","AO03","AO03","AO03","AO03","AO03","AO03","AO03","AO03","",""
"339","2023-10-21 20:20:52","3","gl","235771306","2023-10-21 20:19:15","2023-10-21 20:20:52","AO02","AO03","AO02","AO02","AO02","AO03","AO02","AO02","AO01","AO01","AO01","AO04","AO03","AO01","AO01","AO04","AO04","AO03","",""
"340","2023-10-23 17:09:56","3","gl","1851530115","2023-10-23 17:07:53","2023-10-23 17:09:56","AO01","AO05","AO01","AO01","AO02","AO01","AO01","AO01","AO01","AO01","AO01","AO01","AO03","AO01","AO01","AO01","AO01","AO03","Casi calqueira xa que ao usar Linux principalmente a maoiría das aplicacións son libres.",""
"341","2023-10-23 17:13:13","3","gl","681368448","2023-10-23 17:08:10","2023-10-23 17:13:13","AO03","AO05","AO01","AO02","AO02","AO02","AO02","AO01","AO01","AO01","AO01","AO01","AO01","AO01","AO01","AO04","AO01","AO01","Thunderbird, Qutebrowser, Emacs, GNU utils e o sistema Linux. No meu caso usar software privativo é a excepción",""
"342","2023-10-23 17:13:04","3","gl","1580727966","2023-10-23 17:08:22","2023-10-23 17:13:04","AO01","AO05","AO01","AO02","AO02","AO02","AO02","AO01","AO01","AO01","AO01","AO01","AO01","AO01","AO01","AO01","AO01","AO01","Debian, Manjaro, Archlinux, Ubuntu, gnome, blender, python pypi, vim, gitea, thunderbird, openstreetmap, nextcloud, docker, radicale, weblate, auxio, inkscape, openscad, freecad, arduino, hugo, jekyll...","É importante que existe unha oficina do software libre, máis gustaríame que na administración pública poderíase utilizar máis o software libre."
"343","2023-10-23 17:10:23","3","gl","121104380","2023-10-23 17:08:23","2023-10-23 17:10:23","AO01","AO05","AO01","AO02","AO02","AO02","AO01","AO05","AO01","AO01","AO01","AO01","AO03","AO01","AO04","AO01","AO01","AO04","",""
"344","2023-10-23 17:10:19","3","gl","2137642503","2023-10-23 17:08:33","2023-10-23 17:10:19","AO01","AO05","AO01","AO01","AO02","AO03","AO01","AO05","AO01","AO01","AO01","AO01","AO03","AO01","AO04","AO01","AO04","AO03","",""
"345","2023-10-23 17:10:27","3","gl","689550728","2023-10-23 17:08:36","2023-10-23 17:10:27","AO01","AO05","AO02","AO01","AO02","AO01","AO01","AO02","AO01","AO01","AO04","AO04","AO03","AO01","AO03","AO01","AO01","AO03","",""
"346","2023-10-23 17:13:02","3","gl","804260761","2023-10-23 17:08:39","2023-10-23 17:13:02","AO01","AO05","AO02","AO02","AO02","AO02","AO02","AO02","AO01","AO01","AO04","AO01","AO03","AO01","AO03","AO01","AO01","AO03","",""
"347","2023-10-23 19:04:08","3","gl","600454281","2023-10-23 17:08:55","2023-10-23 19:04:07","AO01","AO05","AO01","AO01","AO02","AO01","AO03","AO03","AO04","AO01","AO04","AO01","AO03","AO03","AO03","AO04","AO04","AO03","",""
"348","2023-10-23 17:11:52","3","gl","1683693643","2023-10-23 17:09:01","2023-10-23 17:11:52","AO02","AO05","AO02","AO02","AO02","AO01","AO01","AO02","AO04","AO04","AO01","AO01","AO03","AO04","AO03","AO03","AO03","AO03","",""
"351","2023-10-23 17:14:12","3","gl","1779411328","2023-10-23 17:10:09","2023-10-23 17:14:12","AO01","AO05","AO01","AO02","AO02","AO03","AO02","AO01","AO01","AO01","AO01","AO04","AO03","AO01","AO04","AO04","AO04","AO03","Tor","."
"352","2023-10-23 17:17:37","3","gl","1791768936","2023-10-23 17:10:50","2023-10-23 17:17:37","AO01","AO05","AO02","AO02","AO02","AO01","AO01","AO05","AO01","AO01","AO01","AO01","AO03","AO01","AO03","AO01","AO01","AO03","",""
"353","2023-10-23 17:24:53","3","gl","1872694963","2023-10-23 17:21:14","2023-10-23 17:24:53","AO01","AO05","AO02","AO03","AO02","AO03","AO02","AO05","AO01","AO04","AO03","AO04","AO03","AO04","AO04","AO03","AO01","AO03","",""
"355","2023-10-23 19:51:46","3","gl","559545626","2023-10-23 19:49:54","2023-10-23 19:51:46","AO01","AO05","AO02","AO01","AO02","AO01","AO01","AO05","AO03","AO04","AO03","AO03","AO03","AO03","AO03","AO03","AO03","AO03","",""
"357","2023-10-23 21:46:13","3","gl","82629096","2023-10-23 21:44:20","2023-10-23 21:46:13","AO03","AO04","AO02","AO02","AO02","AO01","AO02","AO05","AO01","AO04","AO01","AO01","AO03","AO04","AO03","AO01","AO01","AO03","",""
